<?xml version="1.0" encoding="utf-8"?>
<!-- Generator: Adobe Illustrator 16.0.0, SVG Export Plug-In . SVG Version: 6.00 Build 0)  -->
<!DOCTYPE svg PUBLIC "-//W3C//DTD SVG 1.1//EN" "http://www.w3.org/Graphics/SVG/1.1/DTD/svg11.dtd">
<svg version="1.1" id="Layer_1" xmlns="http://www.w3.org/2000/svg" xmlns:xlink="http://www.w3.org/1999/xlink" x="0px" y="0px"
	 width="39px" height="39px" viewBox="0 0 39 39" enable-background="new 0 0 39 39" xml:space="preserve">
<path fill="#3BA1C1" d="M25.805,16.229l-0.3,3.889h-3.986v13.513h-5.039V20.118h-2.688v-3.889h2.688v-1.22v-1.195v-0.199
	c0-1.15,0.029-2.928,0.867-4.028c0.881-1.165,2.092-1.957,4.172-1.957c3.391,0,4.82,0.482,4.82,0.482l-0.672,3.984
	c0,0-1.121-0.324-2.167-0.324s-1.981,0.373-1.981,1.418v0.423v1.394v1.22H25.805z"/>
<path fill="#FFFFFF" d="M25.805,15.099l-0.3,3.888h-3.986V32.5h-5.039V18.987h-2.688v-3.888h2.688v-1.22v-1.195v-0.199
	c0-1.15,0.029-2.928,0.867-4.028C18.228,7.292,19.438,6.5,21.519,6.5c3.391,0,4.82,0.482,4.82,0.482l-0.672,3.984
	c0,0-1.121-0.324-2.167-0.324s-1.981,0.373-1.981,1.418v0.423v1.394v1.22H25.805z"/>
</svg>
