<?xml version="1.0" encoding="utf-8"?>
<!-- Generator: Adobe Illustrator 16.0.0, SVG Export Plug-In . SVG Version: 6.00 Build 0)  -->
<!DOCTYPE svg PUBLIC "-//W3C//DTD SVG 1.1//EN" "http://www.w3.org/Graphics/SVG/1.1/DTD/svg11.dtd">
<svg version="1.1" id="Layer_1" xmlns="http://www.w3.org/2000/svg" xmlns:xlink="http://www.w3.org/1999/xlink" x="0px" y="0px"
	 width="39px" height="39px" viewBox="0 0 39 39" enable-background="new 0 0 39 39" xml:space="preserve">
<g>
	<polygon fill="#3BA1C1" points="35.178,13.84 29.967,13.84 29.967,8.63 28.664,8.63 28.664,13.84 23.454,13.84 23.454,15.143 
		28.664,15.143 28.664,20.353 29.967,20.353 29.967,15.143 35.178,15.143 	"/>
	<path fill="#3BA1C1" d="M17.746,23.598c-0.729-0.516-2.12-1.77-2.12-2.506c0-0.863,0.246-1.288,1.546-2.303
		c1.331-1.042,2.273-2.504,2.273-4.205c0-2.026-0.902-4-2.596-4.652h2.553l1.803-1.302c0,0-6.039,0-8.053,0
		c-3.609,0-7.007,2.734-7.007,5.903c0,3.236,2.461,5.849,6.133,5.849c0.256,0,0.504-0.005,0.747-0.022
		c-0.238,0.457-0.409,0.971-0.409,1.504c0,0.899,0.483,1.629,1.097,2.224c-0.463,0-0.909,0.014-1.396,0.014
		c-4.471,0-7.912,2.849-7.912,5.801c0,2.908,3.772,4.729,8.243,4.729c5.099,0,7.914-2.893,7.914-5.801
		C20.562,26.498,19.873,25.101,17.746,23.598L17.746,23.598z M13.444,19.562L13.444,19.562c-2.075-0.062-4.047-2.321-4.405-5.044
		c-0.357-2.724,1.033-4.81,3.107-4.747c2.074,0.062,4.047,2.248,4.404,4.971C16.909,17.467,15.518,19.625,13.444,19.562
		L13.444,19.562z M12.632,33.346L12.632,33.346c-3.091,0-5.323-1.957-5.323-4.307c0-2.305,2.769-4.222,5.859-4.188
		c0.722,0.008,1.393,0.123,2.004,0.321c1.678,1.165,2.881,1.825,3.22,3.155c0.064,0.27,0.099,0.547,0.099,0.83
		C18.49,31.51,16.977,33.346,12.632,33.346z"/>
</g>
<g>
	<polygon fill="#FFFFFF" points="35.178,12.84 29.967,12.84 29.967,7.63 28.664,7.63 28.664,12.84 23.454,12.84 23.454,14.143 
		28.664,14.143 28.664,19.353 29.967,19.353 29.967,14.143 35.178,14.143 	"/>
	<path fill="#FFFFFF" d="M17.746,22.598c-0.729-0.516-2.12-1.77-2.12-2.506c0-0.863,0.246-1.288,1.546-2.303
		c1.331-1.042,2.273-2.504,2.273-4.205c0-2.026-0.902-4-2.596-4.652h2.553l1.803-1.302c0,0-6.039,0-8.053,0
		c-3.609,0-7.007,2.734-7.007,5.903c0,3.236,2.461,5.85,6.133,5.85c0.256,0,0.504-0.005,0.747-0.023
		c-0.238,0.457-0.409,0.971-0.409,1.504c0,0.899,0.483,1.629,1.097,2.224c-0.463,0-0.909,0.014-1.396,0.014
		c-4.471,0-7.912,2.849-7.912,5.801c0,2.908,3.772,4.729,8.243,4.729c5.099,0,7.914-2.893,7.914-5.801
		C20.562,25.498,19.873,24.101,17.746,22.598L17.746,22.598z M13.444,18.562L13.444,18.562c-2.075-0.062-4.047-2.321-4.405-5.044
		c-0.357-2.724,1.033-4.81,3.107-4.747c2.074,0.062,4.047,2.248,4.404,4.971C16.909,16.467,15.518,18.625,13.444,18.562
		L13.444,18.562z M12.632,32.346L12.632,32.346c-3.091,0-5.323-1.957-5.323-4.307c0-2.305,2.769-4.222,5.859-4.188
		c0.722,0.008,1.393,0.123,2.004,0.321c1.678,1.165,2.881,1.825,3.22,3.155c0.064,0.27,0.099,0.547,0.099,0.83
		C18.49,30.51,16.977,32.346,12.632,32.346z"/>
</g>
</svg>
