<?xml version="1.0" encoding="utf-8"?>
<!-- Generator: Adobe Illustrator 16.0.0, SVG Export Plug-In . SVG Version: 6.00 Build 0)  -->
<!DOCTYPE svg PUBLIC "-//W3C//DTD SVG 1.1//EN" "http://www.w3.org/Graphics/SVG/1.1/DTD/svg11.dtd">
<svg version="1.1" id="Layer_2" xmlns="http://www.w3.org/2000/svg" xmlns:xlink="http://www.w3.org/1999/xlink" x="0px" y="0px"
	 width="221.57px" height="230.706px" viewBox="0 0 221.57 230.706" enable-background="new 0 0 221.57 230.706"
	 xml:space="preserve">
<g>
	<circle fill="#FFFFFF" cx="110.5" cy="115.755" r="106.5"/>
	<g opacity="0.8">
		<path fill="#5E564E" d="M110.5,9.255c58.818,0,106.5,47.682,106.5,106.5s-47.682,106.5-106.5,106.5S4,174.573,4,115.755
			S51.682,9.255,110.5,9.255 M110.5,6.255c-29.248,0-56.746,11.39-77.428,32.071C12.39,59.009,1,86.506,1,115.755
			s11.39,56.746,32.072,77.429c20.682,20.682,48.18,32.071,77.428,32.071s56.746-11.39,77.428-32.071
			C208.61,172.501,220,145.004,220,115.755s-11.39-56.746-32.072-77.429C167.246,17.645,139.748,6.255,110.5,6.255L110.5,6.255z"/>
	</g>
</g>
<g>
	<defs>
		<circle id="SVGID_1_" cx="109.5" cy="115.755" r="106.5"/>
	</defs>
	<clipPath id="SVGID_2_">
		<use xlink:href="#SVGID_1_"  overflow="visible"/>
	</clipPath>
	<g clip-path="url(#SVGID_2_)">
		<path fill="#5E564E" d="M109.171,225.819c-12.885,0-26.049-5.156-26.603-5.376l-0.107-0.042c-0.558,0.572-1.48,1.108-2.982,1.108
			c-1.283,0-2.798-0.404-4.264-1.137c-1.167-0.584-1.681-1.388-1.905-2.031c-0.204,0.011-0.382,0.014-0.523,0.014
			c-0.92,0-2.28-0.111-3.556-0.64l-0.108-0.035l-0.112-0.051c-0.19-0.073-0.382-0.148-0.573-0.237
			c-2.385-1.101-3.851-2.262-4.67-3.057c-0.458,0.033-1.051,0.06-1.771,0.06c-1.479,0-3.076-0.11-4.749-0.327
			c-2.277-0.202-4.268-0.566-5.836-1.073c-0.189-0.062-0.374-0.117-0.561-0.174c-1.688-0.409-3.046-0.782-4.27-1.175
			c-3.046-0.841-6.497-2.037-11.301-6.25l-0.157-0.139l-0.231-0.188c-1.714-1.458-2.999-2.562-3.984-3.429
			c-0.308-0.229-0.697-0.579-1.241-1.111c-1.199-1.094-1.883-1.81-2.47-2.592c-1.405-1.873-1.4-6.411-0.46-8.919
			c0.416-1.108,0.853-1.598,1.421-2.017c0.105-0.197,0.416-0.919,0.958-3.303c1.487-6.547,6.923-16.173,9.864-19.667
			c3.309-3.928,12.813-14.083,15.978-15.176l0.051-0.287c0.364-1.613,1.368-5.522,2.812-6.988c2.238-2.275,6.876-4.338,13.782-6.131
			c0.965-0.292,1.928-0.524,2.869-0.69c0.747-0.169,1.251-0.268,1.251-0.268l0.021,0.081c0.543-0.061,1.079-0.099,1.603-0.111
			l-0.003-0.082l2.408,0.089c1.328,0,3.026-1.07,4.824-2.202c1.774-1.118,3.732-2.353,5.872-2.849
			c-8.271-7.738-9.539-10.056-9.868-11.117c-0.374-0.625-0.577-1.164-0.635-1.678c-0.403-3.624-7.276-60.639-7.346-61.214
			l-0.725-6.012l0.217,0.229L72.086,49.6l7.71,4.05l5.191-6.75l6.619,4.863l4.44-6.755l4.89,5.429l4.825-5.787l5.203,5.502
			l4.808-6.218l5.446,5.924l5.065-6.692l2.942,6.379l4.395-5.163l4.372,6.326l7.156-6.478l1.231,9.356l4.43-2.612l-0.249,5.665
			l0.087,0.024c-0.021,0.461-2.169,46.181-2.448,55.45c-0.169,5.583-3.626,11.308-7.18,15.754l4.65,3.097
			c1.594,0.226,3.22,0.591,4.84,1.088c1.125,0.346,2.227,0.79,3.365,1.355c3.364,1.335,7.651,3.35,10.227,4.808
			c3.003,1.697,4.419,5.778,5.084,9.041c1.493,2.479,4.704,7.821,6.236,10.469l0.38,0.656c2.211,3.815,3.22,5.557,4.523,10.121
			c0.46,1.611,1.82,7.39,0.009,14.118c-1.321,4.904-7.726,16.881-7.998,17.389l-0.088-0.041c-1.129,2.238-7.19,6.93-8.554,6.93
			c-2.571,0-5.408-1.841-8.693-3.973c-1.631-1.059-3.318-2.153-4.895-2.941c-0.538-0.27-1.055-0.544-1.555-0.826
			c-3.304,12.113-2.9,14.771-2.776,15.198c0.833,2.872,0.756,4.911-0.235,6.231c-0.596,0.792-1.492,1.246-2.462,1.246
			c-0.389,0-0.773-0.072-1.136-0.212c-0.993,0.063-3.662,0.522-6.477,1.008c-6.411,1.106-16.101,2.777-24.26,3.146
			C110.531,225.805,109.852,225.819,109.171,225.819z M67.384,198.602c2.1,0.869,4.922,1.495,8.388,1.859
			c0.56,0.06,1.089,0.12,1.587,0.186c-0.428-1.537-0.855-3.182-1.275-4.795c-0.839-3.222-1.706-6.552-2.335-8.002
			c-0.55-1.268-1.04-2.067-1.515-2.84c-0.803-1.308-1.562-2.545-1.919-5.078c-0.612-1.749-1.206-3.677-1.665-5.233
			c-1.206,2.067-2.882,4.566-5.058,6.996l-0.017,0.049L63.32,182c-2.327,2.923-5.537,5.163-8.114,6.651
			c1.362,0.882,2.185,1.774,3.238,2.918c0.358,0.389,0.756,0.82,1.229,1.31C62.936,196.251,66.896,198.35,67.384,198.602z"/>
		<path fill="#F4DDC1" d="M78.391,136.549c-4.995-0.582-10.117,1.641-15.859,4.375c-5.743,2.735-2.748,1.561-3.295,4.295
			c0,0-2.697,4.977-4.611,5.523s-10.293,8.853-15.115,14.578c-2.84,3.373-8.077,12.807-9.444,18.822s-1.636,3.391-2.456,5.578
			s-0.634,5.923,0.187,7.017s1.921,2.158,7.39,6.807s9.75,6.137,17.03,7.777s11.351,0.919,11.351,0.919s1.151,1.695,4.707,3.336
			c3.555,1.641,6.836,0,6.836,0s-2.188,1.914,0,3.008s4.648,1.367,5.195,0s1.914-9.304,1.367-12.172s-1.914-3.415-7.109-3.962
			s-8.75-1.641-10.938-3.008s-6.537-4.625-9.545-6.813c-3.009-2.188-4.936-3.687-4.936-3.687s6.714-3.443,10.092-6.648
			c5.754-5.459,8.657-12.434,8.657-12.434s6.427,0.35,9.708-7.308s10.058-18.464,9.784-21.527S83.386,137.133,78.391,136.549z"/>
		<path fill="#C6B39E" d="M36.855,189.154c0,0,7.903-2.301,11.971-5.012c4.067-2.713,8.739-8.723,10.41-12.722
			c3.131-7.493,0.203-12.175,0.203-12.175s1.383-0.013,4.008,3.292c3.427,4.314,3.835,8.636,3.835,8.636s-2.308,4.211-6.46,9.496
			s-11.678,8.273-11.678,8.273L36.855,189.154z"/>
		<path fill="#FFE7CC" d="M75.105,136.455c0,0-10.9,3.508-14.283,8.764c-2.02,3.137-6.373,12.824-6.373,12.824l1.51-9.033
			c0,0,1.086-4.808,2.285-6.025C62.203,138.963,75.105,136.455,75.105,136.455z"/>
		<path fill="#C6B39E" d="M42.384,188.909c0,0,8.062,1.481,13.435,6.103c4.262,3.664,9.729,5.409,9.729,5.409
			s-4.554-2.267-8.312-6.151c-2.164-2.236-2.787-3.299-5.168-4.549C50.057,188.662,42.384,188.909,42.384,188.909z"/>
		<path fill="#C6B39E" d="M27.796,196.737c0,0,1.165,0.159,2.977-0.101c1.812-0.259,3.952-1.164,3.952-1.164
			s-0.164,1.636,0.494,2.711c0.658,1.076,4.693,4.781,9.469,7.416s12.02,5.185,15.396,5.925c3.375,0.74,3.521-0.695,3.521-0.695
			s1.091-1.195,1.256-1.524c0.164-0.329,0.412,2.717,0.905,3.129s3.54,1.071,5.187,1.153c1.647,0.082,3.376,0.741,4.199,0
			c0.824-0.741,1.482-1.153,1.482-1.153s-0.252,2.25-1.525,3.143s-4.402,1.095-6.283,0.229c-1.882-0.866-5.26-3.564-5.26-3.564
			s-7.738,0.404-12.54-1.148c-5.378-1.739-8.974-1.54-15.428-7.199c-5.163-4.527-3.61-3.238-4.434-3.811
			C30.342,199.512,27.796,196.737,27.796,196.737z"/>
		<path fill="#938476" d="M59.439,159.246c0,0-1.195-0.219,2.222,1.199c2.902,1.205,4.806,3.467,5.563,5.717s0.67,3.699,0.67,3.699
			l-0.774,2.813c0,0-0.482-2.771-1.533-5.711C63.994,162.509,59.439,159.246,59.439,159.246z"/>
		<path fill="#F4DDC1" d="M92.104,131.971l3.249-10.963l34.937-1.502l4.072,22.939c0,0,0.65,14.998-14.327,16.801
			C87.007,163.221,92.104,131.971,92.104,131.971z"/>
		<path fill="#F4DDC1" d="M152.287,166.575c0,0,2.705,10.098,3.74,13.289c0.951,2.938,1.457,7.167,2.455,7.891
			c2.706,0.94-0.011,4.378,2.61,5.654c1.646,0.8-1.08,10.274,1.067,10.936c0.521-0.424,2.979-1.368,3.499-1.366
			c3.263-0.436,5.044-7.261,6.742-10.656c2.175-4.35,5.212-13.994,4.132-20.226c-1.079-6.231-3.483-12.235-6.569-15.23
			c-3.087-2.996-3.725-3.773-4.242-5.369c-0.517-1.596-0.124-6.26-4.417-9.641c-4.292-3.381-7.505-6.396-12.381-7.893
			c-4.876-1.496-8.201-1.241-8.201-1.241s-9.127,8.605-8.183,14.059c0.945,5.453,13.236,16.037,15.978,17.969
			C151.26,166.682,152.287,166.575,152.287,166.575z"/>
		<g>
			<path fill="#FF0000" d="M78.41,136.455c0,0,1.404,6.303,0.244,17.592c-1.569,15.271-7.693,13.928-8.761,15.814
				s0.564,3.258,1.376,9.597c0.465,3.638,1.716,3.915,3.313,7.596c1.607,3.704,4.077,16.474,5.96,19.358
				c1.885,2.885,1.788,10.172,1.788,10.172c-0.015,1.1,0.811,2.331,1.833,2.736c0,0,12.751,5.052,25.953,4.456
				c13.201-0.596,30.466-4.654,31.359-4.113c0.893,0.541,2.758,0.003,1.379-4.751s5.945-27.09,5.945-27.09
				c0.343-1.045,1.092-2.669,1.665-3.607c0,0,0.379-0.62,1.56-3.5c2.918-7.119,4.279-7.529,3.76-12.377
				c-0.521-4.848-4.695-1.746-7.077-10.974s-3.716-21.934-3.716-21.934c-0.115-1.094-0.959-2.487-1.875-3.096
				c0,0-6.632-4.401-10.661-3.712l1.433,5.415c0.281,1.063,0.14,2.754-0.313,3.756c0,0-6.523,14.429-16.374,15.917
				c-9.85,1.488-17.266-0.615-20.99-6.568s-2.319-15.732-4.346-15.924C87.056,130.762,82.603,136.789,78.41,136.455z"/>
			<linearGradient id="SVGID_3_" gradientUnits="userSpaceOnUse" x1="112.7188" y1="130.6211" x2="112.7187" y2="229.0415">
				<stop  offset="0" style="stop-color:#E6E6E6;stop-opacity:0.2"/>
				<stop  offset="0.0919" style="stop-color:#DCDCDC;stop-opacity:0.2276"/>
				<stop  offset="0.2461" style="stop-color:#C2C2C2;stop-opacity:0.2738"/>
				<stop  offset="0.4439" style="stop-color:#989898;stop-opacity:0.3332"/>
				<stop  offset="0.6774" style="stop-color:#5D5D5D;stop-opacity:0.4032"/>
				<stop  offset="0.9384" style="stop-color:#131313;stop-opacity:0.4815"/>
				<stop  offset="1" style="stop-color:#000000;stop-opacity:0.5"/>
			</linearGradient>
			<path fill="url(#SVGID_3_)" d="M78.41,136.455c0,0,1.404,6.303,0.244,17.592c-1.569,15.271-7.693,13.928-8.761,15.814
				s0.564,3.258,1.376,9.597c0.465,3.638,1.716,3.915,3.313,7.596c1.607,3.704,4.077,16.474,5.96,19.358
				c1.885,2.885,1.788,10.172,1.788,10.172c-0.015,1.1,0.811,2.331,1.833,2.736c0,0,12.751,5.052,25.953,4.456
				c13.201-0.596,30.466-4.654,31.359-4.113c0.893,0.541,2.758,0.003,1.379-4.751s5.945-27.09,5.945-27.09
				c0.343-1.045,1.092-2.669,1.665-3.607c0,0,0.379-0.62,1.56-3.5c2.918-7.119,4.279-7.529,3.76-12.377
				c-0.521-4.848-4.695-1.746-7.077-10.974s-3.716-21.934-3.716-21.934c-0.115-1.094-0.959-2.487-1.875-3.096
				c0,0-6.632-4.401-10.661-3.712l1.433,5.415c0.281,1.063,0.14,2.754-0.313,3.756c0,0-6.523,14.429-16.374,15.917
				c-9.85,1.488-17.266-0.615-20.99-6.568s-2.319-15.732-4.346-15.924C87.056,130.762,82.603,136.789,78.41,136.455z"/>
		</g>
		<g>
			<path fill="#F43737" d="M75.479,166.441c0.496-0.672,0.958-1.453,1.349-2.359c1.944-4.512,2.075-7.119,2.257-10.729l0.064-1.242
				c0.21-3.781-0.123-12.757-0.217-15.116l2.068,0.153c0.22,1.672,1.007,8.316,0.461,13.964c-0.656,6.797-3.39,12.503-5.808,15.143
				C75.597,166.318,75.538,166.381,75.479,166.441z"/>
			<path fill="#B7000E" d="M79.454,137.535l1.103,0.082c0.266,2.14,0.912,8.229,0.408,13.447c-0.322,3.329-1.146,6.389-2.186,8.939
				c0.589-2.317,0.687-4.26,0.805-6.625c0.021-0.398,0.041-0.811,0.064-1.239C79.846,148.591,79.568,140.521,79.454,137.535
				 M78.41,136.455c0,0,0.479,11.324,0.24,15.629c-0.239,4.303-0.16,6.879-2.281,11.8s-6.476,5.978-6.476,5.978
				s3.499-0.398,6.13-3.269c2.629-2.87,5.297-8.808,5.937-15.433c0.64-6.623-0.519-14.48-0.519-14.48L78.41,136.455L78.41,136.455z"
				/>
		</g>
		<path fill="#CC0000" d="M154.775,165.32c0,0-4.023,8.301-6.032,12.416c-2.271,4.652-4.876,4.073-9.217,5.623
			c-4.341,1.551-10.421,2.223-10.421,2.223s14.996,0.293,17.531-0.119c3.658-0.594,3.201,0.469,5.578-5.201
			c2.222-5.297,3.734-6.813,3.639-10.683S154.775,165.32,154.775,165.32z"/>
		<path fill="#F43737" stroke="#B7000E" stroke-miterlimit="10" d="M132.456,128.623c1.905,13.822-5.94,23.01-20.485,22.789
			c-15.404-0.234-17.385-11.789-20.105-20.193l-3.785,1.225c2.641,9.951,8.025,22.146,23.98,22.146
			c12.877,0,25.668-9.871,24.584-25.318L132.456,128.623z"/>
		<g>
			<path fill="#F43737" d="M155.314,166.356c-1.227-0.402-4.935-1.855-6.861-5.221c-2.298-4.016-4.646-16.347-5.193-20.576
				c-0.169-1.301-0.741-6.044-1.001-8.198l2.056,1.368c0.249,2.067,1.992,16.317,3.253,20.99c1.412,5.237,3.809,9.197,6.411,10.592
				C154.936,165.825,155.227,166.185,155.314,166.356z"/>
			<path fill="#B7000E" d="M142.885,133.379l0.961,0.64c0.33,2.725,2.01,16.272,3.238,20.832c0.985,3.652,2.453,6.707,4.147,8.745
				c-0.872-0.708-1.709-1.6-2.344-2.709c-2.264-3.955-4.589-16.189-5.132-20.392C143.612,139.392,143.172,135.756,142.885,133.379
				 M141.633,131.344c0,0,0.91,7.58,1.131,9.28c0.465,3.593,2.799,16.467,5.256,20.76s7.578,5.58,7.578,5.58
				s1.138-0.741-1.383-2.093c-2.521-1.352-4.828-5.324-6.165-10.281c-1.337-4.958-3.267-21.148-3.267-21.148L141.633,131.344
				L141.633,131.344z"/>
		</g>
		<path fill="#CC0000" d="M112.297,205.498c0.221-1.051,0.631-2.588,1.233-3.164c0.951-0.912,10.259-1.043,10.259-1.043
			s-9.308-0.191-10.259-1.104c-0.952-0.912-1.425-4.252-1.425-4.252s-0.473,3.34-1.425,4.252c-0.951,0.912-9.762,1.104-9.762,1.104
			s8.811,0.146,9.762,1.058c0.603,0.577,1.013,2.105,1.232,3.151c-0.22,1.061-0.63,2.607-1.232,3.186
			c-0.951,0.91-9.762,1.104-9.762,1.104s8.811,0.145,9.762,1.057c0.952,0.912,1.425,4.204,1.425,4.204s0.473-3.308,1.425-4.219
			c0.951-0.913,10.259-1.042,10.259-1.042s-9.308-0.193-10.259-1.104C112.928,208.107,112.518,206.558,112.297,205.498z"/>
		<path fill="#C6B39E" d="M144.783,133.441c0,0,10.932,3.682,14.634,7.469c2.771,2.836,4.399,6.394,4.938,9.222
			c0.481,2.527,0.218,4.784,0.218,4.784s1.013,0.346,1.739-2.393c0.429-1.615,0.218-3.045,0.218-3.045s-0.799-7.48-4.412-9.523
			c-3.613-2.045-10.581-5.159-13.374-5.863C145.95,133.387,144.783,133.441,144.783,133.441z"/>
		<path fill="#C6B39E" d="M164.334,155.262c0,0,7.496,6.031,10.242,13.138c1.722,4.456,0.869,11.961-0.652,18.485
			c-0.674,2.892-4.35,12.179-4.35,12.179s6.553-12.225,7.829-16.963c1.522-5.654,0.676-10.683,0-13.049
			c-1.305-4.567-2.232-6.039-4.712-10.325c-2.086-3.606-7.467-12.51-7.467-12.51l-0.037,3.615L164.334,155.262z"/>
		<path fill="#938476" d="M155.26,165.553c-0.787-0.552,1.469-4.547,3.046-6.319s3.924-1.604,3.924-1.604s-2.14,0.751-3.565,3.158
			s-2.996,6.664-2.996,6.664L155.26,165.553z"/>
		<path fill="#C6B39E" d="M105.302,140.771c0,0,7.902,2.463,13.661,1.463c5.741-0.997,25.857-17.563,26.238-30.182
			c0.283-9.394,2.449-55.483,2.449-55.483l-2.857,5.274l-3.887,0.002l-2.236,0.814l-5.715-7.756l-4.49,7.348l-2.653-7.348
			l-5.511,7.756l-4.49-9.389l-4.898,8.98l-4.898-8.98l-2.041,10.205l-8.163-8.164l-4.082,9.797l-4.898-9.389l-4.898,10.205
			l-7.348-7.756c7.078,58.706,6.532,56.66,6.813,59.183C81.804,121.025,105.302,140.771,105.302,140.771z"/>
		<path fill="#F4DDC1" d="M105.705,138.891c0,0,9.705,2.402,15.012-0.047s11.238-7.341,16.137-13.464s6.939-6.938,7.348-16.327
			s2.345-50.445,2.345-50.445l-2.753,0.236l-1.225-6.939l-4.898,7.756l-5.715-7.756l-4.49,7.348l-2.653-7.348l-5.511,7.756
			l-4.49-9.389l-4.898,8.98l-4.898-8.98l-2.041,10.205l-8.163-8.164l-4.306,6.447l-4.675-6.039l-4.898,10.205l-7.348-7.756
			c0,0,6.939,57.557,7.348,61.23C81.339,120.073,105.705,138.891,105.705,138.891z"/>
		<path fill="#C6B39E" d="M103.92,89.946c0,2.477-3.598,3.413-7.51,3.413c-3.911,0-9.199-1.781-9.199-3.045
			c0-2.477,5.415-5.64,11.589-5.64C102.711,84.675,103.92,87.47,103.92,89.946z"/>
		<path fill="#FFFFFF" d="M103.494,90.533c0,2.223-3.342,3.328-7.254,3.328c-3.911,0-8.135-1.608-8.135-3.832
			c0-2.223,6.935-3.848,10.846-3.848S103.494,88.31,103.494,90.533z"/>
		<circle fill="#00A1C6" cx="94.661" cy="88.951" r="3.795"/>
		<circle cx="94.583" cy="88.436" r="1.586"/>
		<circle fill="#FFFFFF" cx="93.502" cy="87.643" r="0.793"/>
		<path fill="#C6B39E" d="M122.652,90.652c0,2.478,2.303,0.883,6.214,0.883s9.135,0.378,9.135-2.1c0-2.477-4.418-5.062-8.329-5.062
			S122.652,86.664,122.652,90.652z"/>
		<path fill="#FFFFFF" d="M122.631,91.022c0.113,1.032,2.324,2.513,6.235,2.513s9.08-1.213,9.08-3.689s-5.169-4.079-9.08-4.079
			S122.36,88.561,122.631,91.022z"/>
		<path fill="#00A1C6" d="M131.862,88.715c0,2.097-1.493,3.584-3.59,3.584s-4.001-1.487-4.001-3.584
			c0-2.096,1.699-3.795,3.795-3.795C130.163,84.92,131.862,86.619,131.862,88.715z"/>
		<circle cx="127.99" cy="88.199" r="1.586"/>
		<circle fill="#FFFFFF" cx="126.908" cy="87.406" r="0.793"/>
		<path fill="#422F2A" d="M111.004,104.857c0,0.558-1.688,0.289-2.678,0.289c-0.988,0-1.789-0.451-1.789-1.009
			s1.838-1.025,2.233-0.119C109.215,105.037,111.004,104.301,111.004,104.857z"/>
		<path fill="#422F2A" d="M117.537,104.857c0,0.558,1.688,0.289,2.678,0.289c0.988,0,1.789-0.451,1.789-1.009
			s-1.838-1.025-2.233-0.119C119.326,105.037,117.537,104.301,117.537,104.857z"/>
		<path fill="#99826D" d="M110.228,115.369c0.488,0,3.124,0.456,3.702,0.38c0.691-0.091,1.783-0.631,2.563-0.76
			c6.278-1.035,14.746-3.467,12.823-2.464c-2.386,1.245-9.189,5.56-14.938,5.81s-11.386-1.174-14.499-2.447
			C91.545,112.478,103.679,115.369,110.228,115.369z"/>
		<path fill="#FFFFFF" d="M112.635,117.915c5.764-0.47,18.527-6.107,16.167-4.876c-2.386,1.245-8.622,6.679-14.37,6.929
			s-11.515-2.832-14.628-4.105C96.648,114.571,107.539,118.33,112.635,117.915z"/>
		<polygon fill="#422F2A" points="75.43,72.046 72.989,53.862 79.355,56.202 84.38,49.67 91.12,54.622 95.295,48.271 99.995,53.49 
			104.855,47.66 110.117,53.224 114.904,47.032 120.367,52.975 124.865,47.032 127.721,53.224 132.456,47.66 136.645,53.721 
			142.664,48.271 143.793,56.844 148.088,54.604 147,71.919 132.111,59.813 111.004,62.66 89.328,61.393 		"/>
		<path fill="#C6B39E" d="M145.211,94.436c0,0-3.587,4.7-5.038,7.044s-1.231,7.043-1.231,7.043l5.771-4.721L145.211,94.436z"/>
		<polygon fill="#C6B39E" points="120.38,126.412 108.207,126.412 109.105,123.412 119.13,122.323 		"/>
		<path fill="#C6B39E" d="M116.436,83.767c0,0,2.621,16.87,1.865,18.889c-0.758,2.019-5.797,2.556-5.797,2.556
			s6.424,0.422,7.686-1.344C121.45,102.102,116.436,83.767,116.436,83.767z"/>
		<path fill="#FFE7CC" d="M111.934,83.412c0,0,0.359,16.264-0.714,16.531c-1.073,0.267-0.548-16.531-0.548-16.531H111.934z"/>
		<path fill="#FFE7CC" d="M108.771,99.942c0,0-3.537-0.255-4.276,1.537c-0.74,1.792,0.592,2.88,0.592,2.88s-0.354-2.453,1.451-2.88
			C108.34,101.053,108.771,99.942,108.771,99.942z"/>
		<path fill="#CC0000" d="M84.618,184.022c-4.214-1.056-9.294-3.753-11.035-6s-3.689-8.161-3.689-8.161s-0.384,1.324-0.611,3.289
			c1.067,3.709,2.842,9.4,4.028,10.752c0.156,0.178,0.304,0.373,0.447,0.575c2.403,1.244,5.848,2.063,9.132,2.324
			c5.284,0.421,17.5,0.188,17.5,0.188S88.832,185.078,84.618,184.022z"/>
		<path fill="#CC0000" d="M129.642,170.17c0,3.518-4.258,7.405-10.033,7.684c-0.741,0.943-1.426,1.499-1.76,1.758
			c-0.981,0.889-1.24,1.814-1.24,3c0,1.185,0.592,2.369,2.369,2.369s3.555,1.186,3.555,2.963v1.185c0,0.333-0.258,0.593-0.592,0.593
			h-15.403c-0.333,0-0.593-0.26-0.593-0.593v-1.185c0-1.777,1.777-2.963,3.555-2.963s2.37-1.185,2.37-2.369
			c0-1.186-0.259-2.111-1.24-3c-0.334-0.259-1.019-0.814-1.759-1.758c-5.777-0.278-10.035-4.166-10.035-7.684v-2.369
			c0-0.982,0.797-1.777,1.777-1.777h5.332v-1.777c0-1.629,1.333-2.963,2.963-2.963h10.663c1.63,0,2.962,1.334,2.962,2.963v1.777
			h5.332c0.981,0,1.777,0.795,1.777,1.777V170.17z M105.944,168.393h-4.739v1.777c0,1.814,2.462,4.332,6.11,5.092
			C106.537,173.558,105.944,171.299,105.944,168.393z M127.272,168.393h-4.74c0,2.906-0.592,5.165-1.37,6.869
			c3.647-0.76,6.11-3.277,6.11-5.092V168.393z"/>
		<g>
			<path fill="#FFFFFF" d="M129.105,169.81c0,3.518-4.258,7.405-10.033,7.683c-0.741,0.945-1.426,1.5-1.76,1.759
				c-0.981,0.889-1.24,1.815-1.24,2.999c0,1.186,0.592,2.371,2.369,2.371s3.555,1.184,3.555,2.961v1.186
				c0,0.334-0.258,0.592-0.592,0.592h-15.403c-0.333,0-0.593-0.258-0.593-0.592v-1.186c0-1.777,1.777-2.961,3.555-2.961
				s2.37-1.186,2.37-2.371c0-1.184-0.259-2.11-1.24-2.999c-0.334-0.259-1.019-0.813-1.759-1.759
				c-5.777-0.277-10.035-4.165-10.035-7.683v-2.37c0-0.98,0.797-1.777,1.777-1.777h5.332v-1.777c0-1.629,1.333-2.961,2.963-2.961
				h10.663c1.63,0,2.962,1.332,2.962,2.961v1.777h5.332c0.981,0,1.777,0.797,1.777,1.777V169.81z M105.408,168.393h-4.739v1.777
				c0,1.814,2.462,4.332,6.11,5.091C106.001,173.557,105.408,171.299,105.408,168.393z M126.736,168.393h-4.74
				c0,2.906-0.592,5.164-1.37,6.868c3.647-0.759,6.11-3.276,6.11-5.091V168.393z"/>
			<linearGradient id="SVGID_4_" gradientUnits="userSpaceOnUse" x1="113.7021" y1="161.542" x2="113.7021" y2="216.3356">
				<stop  offset="0" style="stop-color:#E6E6E6;stop-opacity:0.2"/>
				<stop  offset="0.0919" style="stop-color:#DCDCDC;stop-opacity:0.2276"/>
				<stop  offset="0.2461" style="stop-color:#C2C2C2;stop-opacity:0.2738"/>
				<stop  offset="0.4439" style="stop-color:#989898;stop-opacity:0.3332"/>
				<stop  offset="0.6774" style="stop-color:#5D5D5D;stop-opacity:0.4032"/>
				<stop  offset="0.9384" style="stop-color:#131313;stop-opacity:0.4815"/>
				<stop  offset="1" style="stop-color:#000000;stop-opacity:0.5"/>
			</linearGradient>
			<path fill="url(#SVGID_4_)" d="M129.105,169.81c0,3.518-4.258,7.405-10.033,7.683c-0.741,0.945-1.426,1.5-1.76,1.759
				c-0.981,0.889-1.24,1.815-1.24,2.999c0,1.186,0.592,2.371,2.369,2.371s3.555,1.184,3.555,2.961v1.186
				c0,0.334-0.258,0.592-0.592,0.592h-15.403c-0.333,0-0.593-0.258-0.593-0.592v-1.186c0-1.777,1.777-2.961,3.555-2.961
				s2.37-1.186,2.37-2.371c0-1.184-0.259-2.11-1.24-2.999c-0.334-0.259-1.019-0.813-1.759-1.759
				c-5.777-0.277-10.035-4.165-10.035-7.683v-2.37c0-0.98,0.797-1.777,1.777-1.777h5.332v-1.777c0-1.629,1.333-2.961,2.963-2.961
				h10.663c1.63,0,2.962,1.332,2.962,2.961v1.777h5.332c0.981,0,1.777,0.797,1.777,1.777V169.81z M105.408,168.393h-4.739v1.777
				c0,1.814,2.462,4.332,6.11,5.091C106.001,173.557,105.408,171.299,105.408,168.393z M126.736,168.393h-4.74
				c0,2.906-0.592,5.164-1.37,6.868c3.647-0.759,6.11-3.276,6.11-5.091V168.393z"/>
		</g>
		<g>
			<path fill="#422F2A" d="M85.299,77.897c7.135-3.01,13.879-0.563,20.611,2.596c1.754,0.823,2.319,0.39,0.858-1.311
				c-5.371-6.251-14.905-7.735-22.107-2.336C81.154,79.476,85.299,77.897,85.299,77.897z"/>
		</g>
		<g>
			<path fill="#422F2A" d="M120.779,81.345c5.288-2.77,10.028-3.984,16.349-3.16c1.896,0.247,4.598,0.338,2.885-0.55
				c-7.419-3.847-15.25-2.885-21.206,2.8C116.512,82.625,120.779,81.345,120.779,81.345z"/>
		</g>
		<path fill="#938476" d="M115.205,121.207c0,0,6.524,1.6,8.747,5.552s6.921,13.553,6.921,13.553l-1.897,3.461L115.205,121.207"/>
		<path fill="#CC0000" d="M131.097,140.089c0,0,3.231,4.703,5.207,7.914s7.904,9.387,9.881,10.128s8.602,6.137,8.602,6.137
			s-9.097-3.172-10.825-4.16s-11.362-9.634-12.845-11.857s-2.252-3.92-2.252-3.92L131.097,140.089z"/>
		<path fill="#F4DDC1" d="M106.288,127.731c0,0,1.222,2.054,3.698,1.306c2.506-0.757,3.973-2.533,4.566-1.741
			c1.957,2.61,2.045,2.702,1.958,3.046c-0.218,0.869-2.611-0.218-3.698,1.087s-1.305,3.044-1.305,3.044s-1.088-0.869-3.045,0.436
			s-1.305,3.479-1.305,3.479s-2.484,0.056-2.303,1.149c0.435,2.609-1.195,1.014-0.5,2.75c1.306,3.263,11.112,12.76,14.375,14.5
			s2.347,5.306,5.174,10.525s6.742,13.266,12.396,19.138s8.047,8.917,13.701,11.744s11.96,8.917,14.57,5.872
			s5.003-5.438,3.915-12.396s1.957-6.307-1.523-13.701s-7.328-10.961-12.178-13.701c-5.003-2.827-5.984-3.202-11.526-6.307
			c-5.438-3.046-8.699-5.655-10.874-8.917s-2.827-5.654-4.784-9.568s-3.262-7.829-5.002-10.874s-5.655-6.742-7.395-7.395
			S106.288,127.731,106.288,127.731z"/>
		<path fill="#C6B39E" d="M106.828,127.512c2.126-1.399,4.272-2.728,6.524-3.916c0.973-0.513,2.168-0.201,2.726,0.761
			c2.148,3.713,4.39,3.861,6.527,7.556c2.621,4.528,4.354,13.047,7.794,16.997c5.947,6.83,20.539,15.878,27.206,22.003
			c5.904,5.425,7,8,10.5,16c0.176-1.604,0.566-5.315-1.142-8.943c-3.48-7.395-7.328-10.961-12.178-13.701
			c-5.003-2.827-5.984-3.202-11.526-6.307c-5.438-3.046-8.699-5.655-10.874-8.917s-2.827-5.654-4.784-9.568
			s-3.262-7.829-5.002-10.874s-5.655-6.742-7.395-7.395s-8.917,6.524-8.917,6.524s0.038,0.063,0.11,0.159
			C106.52,127.755,106.656,127.625,106.828,127.512z"/>
		<path fill="#C6B39E" d="M112.986,134.356c0.545-1.232,0.966-2.154,2.108-2.778c-0.118-0.282-0.231-0.567-0.353-0.849
			c-0.697,0.016-1.443,0.115-1.93,0.699c-0.953,1.144-1.238,2.621-1.293,2.968C111.986,134.331,112.471,134.303,112.986,134.356z"/>
		<path fill="#C6B39E" d="M169.063,196.458c-5.563,3.711-10.372,1.164-15.035-1.099c-7.544-3.661-13.7-8.229-18.858-14.897
			c-2.635-3.406-4.746-7.38-7.731-10.487c-2.335-2.431-4.622-4.791-5.04-8.269c-0.014-0.114-0.012-0.221-0.012-0.327
			c-0.904-1.373-0.71-3.347-2.156-4.217c-1.885-1.134-4.121-2.789-5.875-4.125c-2.291-1.744-4.631-3.96-6.375-6.25
			c-2.51-3.294-5.283-6.798-0.687-8.284c0.504-2.293,2.041-3.757,4.117-4.09c-0.293-0.17-1.312-0.596-2.948,0.495
			c-1.957,1.305-1.305,3.479-1.305,3.479s-3.661,0.646-3.479,1.74c0.435,2.609-1.019,0.798-0.323,2.534
			c1.306,3.263,9.862,12.01,13.125,13.75s4.597,5.681,7.424,10.9s6.742,13.266,12.396,19.138s8.047,8.917,13.701,11.744
			s10.559,8.479,14.326,7.104c3.544-1.294,6.314-6.314,7.893-12.313C172.196,193.049,171.117,195.088,169.063,196.458z"/>
	</g>
</g>
</svg>
