<?xml version="1.0" encoding="utf-8"?>
<!-- Generator: Adobe Illustrator 16.0.0, SVG Export Plug-In . SVG Version: 6.00 Build 0)  -->
<!DOCTYPE svg PUBLIC "-//W3C//DTD SVG 1.1//EN" "http://www.w3.org/Graphics/SVG/1.1/DTD/svg11.dtd">
<svg version="1.1" id="Layer_1" xmlns="http://www.w3.org/2000/svg" xmlns:xlink="http://www.w3.org/1999/xlink" x="0px" y="0px"
	 width="55px" height="79px" viewBox="0 0 55 79" enable-background="new 0 0 55 79" xml:space="preserve">
<g>
	<path fill="#FFFFFF" d="M42.345,34.823h-0.467l0.597-0.194l-3.059-9.388c-0.304-0.936-1.276-1.642-2.261-1.642h-9.396h-1.453
		h-9.396c-0.984,0-1.957,0.706-2.261,1.642l-3.059,9.388l0.597,0.194H11.72c-1.381,0-2.5,1.119-2.5,2.5v7.701
		c0,1.381,1.119,2.5,2.5,2.5h30.625c1.381,0,2.5-1.119,2.5-2.5v-7.701C44.845,35.942,43.726,34.823,42.345,34.823z M16.551,25.859
		c0.036-0.111,0.24-0.26,0.358-0.26h9.396h1.453h9.396c0.118,0,0.322,0.148,0.358,0.26l2.92,8.964H13.631L16.551,25.859z
		 M14.603,43.187c-1.69,0-3.06-1.369-3.06-3.06c0-1.689,1.369-3.059,3.06-3.059c1.689,0,3.059,1.369,3.059,3.059
		C17.661,41.817,16.292,43.187,14.603,43.187z M39.463,43.187c-1.69,0-3.06-1.369-3.06-3.06c0-1.689,1.369-3.059,3.06-3.059
		c1.689,0,3.059,1.369,3.059,3.059C42.521,41.817,41.152,43.187,39.463,43.187z"/>
	<path fill="#FFFFFF" d="M17.717,48.298h-6.339V52.5c0,0.02-0.006,0.038-0.006,0.058s0.006,0.038,0.006,0.058v0.098h0.01
		c0.083,1.68,1.459,3.02,3.159,3.02c1.701,0,3.077-1.34,3.16-3.02h0.01v-0.098c0-0.02,0.006-0.038,0.006-0.058
		s-0.006-0.038-0.006-0.058V48.298z"/>
	<path fill="#FFFFFF" d="M42.534,48.298h-6.339V52.5c0,0.02-0.006,0.038-0.006,0.058s0.006,0.038,0.006,0.058v0.098h0.01
		c0.083,1.68,1.459,3.02,3.159,3.02c1.701,0,3.077-1.34,3.16-3.02h0.01v-0.098c0-0.02,0.006-0.038,0.006-0.058
		s-0.006-0.038-0.006-0.058V48.298z"/>
</g>
</svg>
