<?xml version="1.0" encoding="utf-8"?>
<!-- Generator: Adobe Illustrator 16.0.0, SVG Export Plug-In . SVG Version: 6.00 Build 0)  -->
<!DOCTYPE svg PUBLIC "-//W3C//DTD SVG 1.1//EN" "http://www.w3.org/Graphics/SVG/1.1/DTD/svg11.dtd">
<svg version="1.1" id="Layer_1" xmlns="http://www.w3.org/2000/svg" xmlns:xlink="http://www.w3.org/1999/xlink" x="0px" y="0px"
	 width="55px" height="79px" viewBox="0 0 55 79" enable-background="new 0 0 55 79" xml:space="preserve">
<g>
	<path fill="#FFFFFF" d="M42.784,48.783c1.602,0,2.899-1.3,2.899-2.901c0-1.531-1.192-2.775-2.7-2.88v-3.543
		c0-0.274-0.222-0.497-0.496-0.497s-0.497,0.223-0.497,0.497v3.646c-1.215,0.348-2.108,1.453-2.108,2.777
		C39.882,47.483,41.181,48.783,42.784,48.783z"/>
	<path fill="#FFFFFF" d="M29.203,40.998l7.877,3.866c0.722,0.368,1.606,0.082,1.973-0.641c0.371-0.72,0.085-1.604-0.638-1.974
		l-7.878-3.865c-0.722-0.369-1.605-0.083-1.974,0.639C28.194,39.746,28.479,40.63,29.203,40.998z"/>
	<path fill="#FFFFFF" d="M47.613,57.369l-4.412-3.192c-0.682-0.494-1.676-1.609-2.086-2.34l-1.794-3.201
		c-0.709-1.263-2.23-2.683-3.541-3.303l-5.452-2.58c-0.892-0.422-2.314-1.271-3.105-1.855l-4.568-3.368
		c-0.053-0.039-0.234-0.213-0.486-0.462l0.362-7.876c0.022-0.481-0.154-0.926-0.456-1.255l-5.133-8.465
		c-0.327-0.433-1.841-0.035-2.28,0.295c-0.438,0.33-1.438,1.597-1.107,2.034l5.88,6.233c-0.219,0.275-0.358,0.619-0.376,0.998
		l-0.215,4.676c-1.078-1.101-1.966-2.012-1.966-2.012c-0.29-0.299-0.662-0.464-1.045-0.51L6.664,27.93
		c-0.527-0.128-1.449,1.137-1.58,1.671c-0.132,0.532-0.105,2.145,0.428,2.275l7.685,1.007c0,0,0.001,0,0.001,0.001l5.425,5.608
		l-0.061,1.324c-0.033,0.704,0.363,1.358,1.003,1.656l7.669,3.568c0.011,0.005,0.022,0.006,0.032,0.011
		c0.561,0.326,1.114,0.626,1.575,0.844l5.453,2.58c0.665,0.314,1.635,1.22,1.995,1.86l1.794,3.201
		c0.661,1.176,1.982,2.66,3.078,3.455l4.413,3.194c0.309,0.223,0.665,0.329,1.019,0.329c0.538,0,1.069-0.249,1.409-0.719
		C48.564,59.02,48.391,57.933,47.613,57.369z"/>
	<circle fill="#FFFFFF" cx="41.737" cy="36.992" r="0.751"/>
	<circle fill="#FFFFFF" cx="43.419" cy="34.597" r="1.109"/>
	<circle fill="#FFFFFF" cx="41.486" cy="31.331" r="0.644"/>
</g>
</svg>
