<?xml version="1.0" encoding="utf-8"?>
<!-- Generator: Adobe Illustrator 16.0.0, SVG Export Plug-In . SVG Version: 6.00 Build 0)  -->
<!DOCTYPE svg PUBLIC "-//W3C//DTD SVG 1.1//EN" "http://www.w3.org/Graphics/SVG/1.1/DTD/svg11.dtd">
<svg version="1.1" id="Layer_1" xmlns="http://www.w3.org/2000/svg" xmlns:xlink="http://www.w3.org/1999/xlink" x="0px" y="0px"
	 width="55px" height="79px" viewBox="0 0 55 79" enable-background="new 0 0 55 79" xml:space="preserve">
<g>
	<path fill="#FFFFFF" d="M38.874,39.354c-0.018-0.211-0.081-0.415-0.184-0.601l-4.156-5.587c-0.351-0.627-1.083-0.904-1.743-0.705
		h-0.999c-0.383,2.167-2.268,3.822-4.543,3.822s-4.162-1.655-4.545-3.822h-1.011c-0.072,0-0.137,0.014-0.204,0.021
		c-0.677-0.234-1.44,0.039-1.8,0.685l-4.156,5.587c-0.103,0.186-0.166,0.39-0.184,0.601l-0.791,9.13
		c-0.071,0.826,0.539,1.553,1.364,1.624c0.045,0.004,0.088,0.006,0.132,0.006c0.77,0,1.425-0.589,1.492-1.37l0.764-8.811
		l2.566-3.648l0.943,2.821c0.212,0.85,0.965,1.567,1.816,1.829c-0.036,0.129-0.062,0.262-0.062,0.402v6.985
		c0,0.828,0.672,1.5,1.5,1.5s1.5-0.672,1.5-1.5v-6.985c0-0.1-0.011-0.196-0.029-0.291c0.295,0,0.545,0,0.702,0
		c0.039,0,0.091,0,0.14,0c-0.019,0.095-0.029,0.191-0.029,0.291v6.985c0,0.828,0.672,1.5,1.5,1.5s1.5-0.672,1.5-1.5v-6.985
		c0-0.104-0.011-0.206-0.031-0.304c1.056-0.068,2.093-0.904,2.349-1.928l0.859-2.484l2.378,3.312l0.764,8.811
		c0.067,0.781,0.723,1.37,1.492,1.37c0.044,0,0.088-0.002,0.132-0.006c0.825-0.071,1.436-0.798,1.364-1.624L38.874,39.354z"/>
	<path fill="#FFFFFF" d="M24.198,33.602c0.068,0.106,0.148,0.204,0.228,0.303c0.057,0.072,0.113,0.146,0.176,0.214
		c0.078,0.083,0.161,0.16,0.246,0.235c0.08,0.072,0.162,0.141,0.248,0.205c0.083,0.062,0.168,0.12,0.258,0.176
		c0.103,0.063,0.21,0.12,0.32,0.174c0.084,0.041,0.168,0.083,0.256,0.118c0.133,0.053,0.271,0.091,0.412,0.128
		c0.075,0.02,0.146,0.045,0.224,0.06c0.222,0.043,0.449,0.069,0.684,0.069s0.462-0.026,0.683-0.069
		c0.077-0.015,0.148-0.04,0.223-0.06c0.141-0.036,0.28-0.075,0.414-0.128c0.087-0.035,0.17-0.076,0.253-0.117
		c0.111-0.055,0.22-0.111,0.323-0.176c0.089-0.055,0.173-0.112,0.256-0.174c0.087-0.065,0.169-0.135,0.25-0.207
		c0.084-0.075,0.167-0.151,0.244-0.234c0.063-0.068,0.12-0.143,0.178-0.216c0.078-0.098,0.157-0.194,0.226-0.301
		c0.035-0.055,0.062-0.114,0.093-0.171c0.299-0.526,0.482-1.126,0.482-1.772c0-1.998-1.626-3.624-3.624-3.624
		c-2,0-3.626,1.626-3.626,3.624c0,0.647,0.185,1.247,0.482,1.773C24.138,33.487,24.164,33.547,24.198,33.602z"/>
</g>
</svg>
