<?xml version="1.0" encoding="utf-8"?>
<!-- Generator: Adobe Illustrator 16.0.0, SVG Export Plug-In . SVG Version: 6.00 Build 0)  -->
<!DOCTYPE svg PUBLIC "-//W3C//DTD SVG 1.1//EN" "http://www.w3.org/Graphics/SVG/1.1/DTD/svg11.dtd">
<svg version="1.1" id="Layer_1" xmlns="http://www.w3.org/2000/svg" xmlns:xlink="http://www.w3.org/1999/xlink" x="0px" y="0px"
	 width="55px" height="79px" viewBox="0 0 55 79" enable-background="new 0 0 55 79" xml:space="preserve">
<g>
	<circle fill="#FFFFFF" cx="27.492" cy="28.415" r="3.228"/>
	<path fill="#FFFFFF" d="M48.039,31.895h-2.146v-2.353c0-0.553-0.447-1-1-1s-1,0.447-1,1v2.353h-0.854v-3.717c0-0.553-0.447-1-1-1
		s-1,0.447-1,1v3.717h-1.165c-0.08-0.388-0.311-0.743-0.674-0.969c-0.702-0.438-1.628-0.222-2.065,0.483l-0.302,0.485H18.466
		l-0.302-0.485c-0.438-0.705-1.363-0.918-2.065-0.483c-0.363,0.226-0.594,0.581-0.674,0.969h-0.95v-3.717c0-0.553-0.447-1-1-1
		s-1,0.447-1,1v3.717h-0.855v-2.353c0-0.553-0.447-1-1-1s-1,0.447-1,1v2.353H6.947c-0.553,0-1,0.447-1,1s0.447,1,1,1h2.672v2.353
		c0,0.553,0.447,1,1,1s1-0.447,1-1v-2.353h0.855v3.718c0,0.553,0.447,1,1,1s1-0.447,1-1v-3.718h1.701l2.746,4.421
		c0.284,0.457,0.773,0.709,1.275,0.709c0.26,0,0.523-0.067,0.763-0.209l3.724-2.202v4.404h-3.751c-1.93,0-3.5,1.57-3.5,3.5
		l1.448,8.181c0,0.828,0.672,1.5,1.5,1.5s1.5-0.672,1.5-1.5l-1.448-8.181c0-0.271,0.229-0.5,0.5-0.5h5.113h2.894h5.113
		c0.271,0,0.5,0.229,0.5,0.5l-1.448,8.181c0,0.828,0.672,1.5,1.5,1.5s1.5-0.672,1.5-1.5l1.448-8.181c0-1.93-1.57-3.5-3.5-3.5h-3.751
		v-4.445c0-0.045,0.015-0.086,0.026-0.129l4.011,2.372c0.239,0.142,0.503,0.209,0.763,0.209c0.502,0,0.991-0.252,1.275-0.709
		l2.746-4.421h1.916v3.718c0,0.553,0.447,1,1,1s1-0.447,1-1v-3.718h0.854v2.353c0,0.553,0.447,1,1,1s1-0.447,1-1v-2.353h2.146
		c0.553,0,1-0.447,1-1S48.592,31.895,48.039,31.895z M20.696,35.486l-0.988-1.592h3.68L20.696,35.486z M34.603,35.486l-2.691-1.592
		h3.68L34.603,35.486z"/>
</g>
</svg>
